{
  "shell_port": 36515,
  "iopub_port": 42773,
  "stdin_port": 51429,
  "control_port": 40057,
  "hb_port": 51925,
  "ip": "127.0.0.1",
  "key": "818c6fc6-5d6bd5f2243b81e46f389686",
  "transport": "tcp",
  "signature_scheme": "hmac-sha256",
  "kernel_name": ""
}