{
  "shell_port": 57981,
  "iopub_port": 44461,
  "stdin_port": 34911,
  "control_port": 51061,
  "hb_port": 50123,
  "ip": "127.0.0.1",
  "key": "6308977a-e8f1af7212ec6a0ce3a16e98",
  "transport": "tcp",
  "signature_scheme": "hmac-sha256",
  "kernel_name": ""
}